%YAML 1.1
%TAG !u! tag:unity3d.com,2011:
--- !u!1045 &1
EditorBuildSettings:
  m_ObjectHideFlags: 0
  serializedVersion: 2
  m_Scenes:
  - enabled: 1
    path: Assets/Scenes/WelcomeScreen.unity
    guid: 4ccda17c5a3ff3f409428fd03a9f0d56
  - enabled: 1
    path: Assets/Scenes/MainMenu.unity
    guid: cc10b129d3c5951478a78103b68f05db
  - enabled: 1
    path: Assets/Scenes/DeckBuilder.unity
    guid: 9a847bfe4295f1c47922959f84a50a4a
  - enabled: 1
    path: Assets/Scenes/GameScene.unity
    guid: 511ba63d8cd021840b476dd5dc8e298f
  - enabled: 1
    path: Assets/Scenes/MultiplayerSelect.unity
    guid: 009d0fa54fc6d204baebfba25b82b1e8
  - enabled: 1
    path: Assets/Scenes/UIPrototype_PART1.unity
    guid: 3f8fac62abd94fb4b87c89413866368e
  - enabled: 1
    path: Assets/Scenes/MemoryUIGamePrototype.unity
    guid: 29ba037d14d958f4693349c63cb5c318
  - enabled: 0
    path: Assets/Scenes/Match3DPrototype.unity
    guid: 8c722d3a1a82dfa47ae7ab7f2a60e116
  m_configObjects: {}
